[
    {
        "key": "group_56c275a0f1ed7",
        "title": "Config",
        "fields": [
            {
                "key": "field_56551d71eb8b7",
                "label": "Config",
                "name": "",
                "type": "tab",
                "instructions": "",
                "required": 0,
                "conditional_logic": 0,
                "wrapper": {
                    "width": "",
                    "class": "",
                    "id": ""
                },
                "placement": "top",
                "endpoint": 0
            },
            {
                "key": "field_56551d7eeb8b8",
                "label": "Colours",
                "name": "colours",
                "type": "repeater",
                "instructions": "",
                "required": 0,
                "conditional_logic": 0,
                "wrapper": {
                    "width": "",
                    "class": "",
                    "id": ""
                },
                "collapsed": "",
                "min": "",
                "max": "",
                "layout": "table",
                "button_label": "Add Colour",
                "sub_fields": [
                    {
                        "key": "field_56551da5eb8b9",
                        "label": "Value",
                        "name": "value",
                        "type": "text",
                        "instructions": "",
                        "required": 0,
                        "conditional_logic": 0,
                        "wrapper": {
                            "width": "",
                            "class": "",
                            "id": ""
                        },
                        "default_value": "",
                        "placeholder": "",
                        "prepend": "",
                        "append": "",
                        "maxlength": "",
                        "readonly": 0,
                        "disabled": 0
                    },
                    {
                        "key": "field_56551da9eb8ba",
                        "label": "Label",
                        "name": "label",
                        "type": "text",
                        "instructions": "",
                        "required": 0,
                        "conditional_logic": 0,
                        "wrapper": {
                            "width": "",
                            "class": "",
                            "id": ""
                        },
                        "default_value": "",
                        "placeholder": "",
                        "prepend": "",
                        "append": "",
                        "maxlength": "",
                        "readonly": 0,
                        "disabled": 0
                    }
                ]
            },
            {
                "key": "field_56551db8eb8bb",
                "label": "Background Colours",
                "name": "background_colours",
                "type": "repeater",
                "instructions": "",
                "required": 0,
                "conditional_logic": 0,
                "wrapper": {
                    "width": "",
                    "class": "",
                    "id": ""
                },
                "collapsed": "",
                "min": "",
                "max": "",
                "layout": "table",
                "button_label": "Add Background Colour",
                "sub_fields": [
                    {
                        "key": "field_56551db8eb8bc",
                        "label": "Value",
                        "name": "value",
                        "type": "text",
                        "instructions": "",
                        "required": 0,
                        "conditional_logic": 0,
                        "wrapper": {
                            "width": "",
                            "class": "",
                            "id": ""
                        },
                        "default_value": "",
                        "placeholder": "",
                        "prepend": "",
                        "append": "",
                        "maxlength": "",
                        "readonly": 0,
                        "disabled": 0
                    },
                    {
                        "key": "field_56551db8eb8bd",
                        "label": "Label",
                        "name": "label",
                        "type": "text",
                        "instructions": "",
                        "required": 0,
                        "conditional_logic": 0,
                        "wrapper": {
                            "width": "",
                            "class": "",
                            "id": ""
                        },
                        "default_value": "",
                        "placeholder": "",
                        "prepend": "",
                        "append": "",
                        "maxlength": "",
                        "readonly": 0,
                        "disabled": 0
                    }
                ]
            },
            {
                "key": "field_566793e010219",
                "label": "Button Icons",
                "name": "button_icons",
                "type": "repeater",
                "instructions": "",
                "required": 0,
                "conditional_logic": 0,
                "wrapper": {
                    "width": "",
                    "class": "",
                    "id": ""
                },
                "collapsed": "",
                "min": "",
                "max": "",
                "layout": "table",
                "button_label": "Add Button Icon",
                "sub_fields": [
                    {
                        "key": "field_566793e01021a",
                        "label": "Value",
                        "name": "value",
                        "type": "text",
                        "instructions": "",
                        "required": 1,
                        "conditional_logic": 0,
                        "wrapper": {
                            "width": "",
                            "class": "",
                            "id": ""
                        },
                        "default_value": "",
                        "placeholder": "",
                        "prepend": "",
                        "append": "",
                        "maxlength": "",
                        "readonly": 0,
                        "disabled": 0
                    },
                    {
                        "key": "field_566793e01021b",
                        "label": "Label",
                        "name": "label",
                        "type": "text",
                        "instructions": "",
                        "required": 1,
                        "conditional_logic": 0,
                        "wrapper": {
                            "width": "",
                            "class": "",
                            "id": ""
                        },
                        "default_value": "",
                        "placeholder": "",
                        "prepend": "",
                        "append": "",
                        "maxlength": "",
                        "readonly": 0,
                        "disabled": 0
                    }
                ]
            },
            {
                "key": "field_566fa2d23e868",
                "label": "Links",
                "name": "links",
                "type": "repeater",
                "instructions": "",
                "required": 0,
                "conditional_logic": 0,
                "wrapper": {
                    "width": "",
                    "class": "",
                    "id": ""
                },
                "collapsed": "",
                "min": "",
                "max": "",
                "layout": "table",
                "button_label": "Add Link",
                "sub_fields": [
                    {
                        "key": "field_566fa2ee3e86a",
                        "label": "Name",
                        "name": "name",
                        "type": "text",
                        "instructions": "",
                        "required": 0,
                        "conditional_logic": 0,
                        "wrapper": {
                            "width": "",
                            "class": "",
                            "id": ""
                        },
                        "default_value": "",
                        "placeholder": "",
                        "prepend": "",
                        "append": "",
                        "maxlength": "",
                        "readonly": 0,
                        "disabled": 0
                    },
                    {
                        "key": "field_566fa2dc3e869",
                        "label": "Link",
                        "name": "link",
                        "type": "page_link",
                        "instructions": "",
                        "required": 0,
                        "conditional_logic": 0,
                        "wrapper": {
                            "width": "",
                            "class": "",
                            "id": ""
                        },
                        "post_type": [],
                        "taxonomy": [],
                        "allow_null": 0,
                        "multiple": 0
                    }
                ]
            }
        ],
        "location": [
            [
                {
                    "param": "options_page",
                    "operator": "==",
                    "value": "config"
                }
            ]
        ],
        "menu_order": 0,
        "position": "normal",
        "style": "default",
        "label_placement": "top",
        "instruction_placement": "label",
        "hide_on_screen": "",
        "active": 1,
        "description": ""
    }
]