<?xml version="1.0" encoding="utf-8"?>
<!-- Generator: Adobe Illustrator 17.0.0, SVG Export Plug-In . SVG Version: 6.00 Build 0)  -->
<!DOCTYPE svg PUBLIC "-//W3C//DTD SVG 1.1//EN" "http://www.w3.org/Graphics/SVG/1.1/DTD/svg11.dtd">
<svg version="1.1" id="Layer_1" xmlns="http://www.w3.org/2000/svg" xmlns:xlink="http://www.w3.org/1999/xlink" x="0px" y="0px"
	 width="100px" height="100px" viewBox="0 0 100 100" enable-background="new 0 0 100 100" xml:space="preserve">
<g>
	<g>
		<path fill="#010101" d="M68.88,65.28c6.39-6.92,10.38-16.19,10.38-26.39C79.26,17.48,61.84,0,40.37,0S1.49,17.48,1.49,38.89
			s17.42,38.89,38.89,38.89c8.74,0,16.77-2.87,23.28-7.74l28.91,28.91c0.7,0.7,1.58,1.06,2.46,1.06c0.88,0,1.82-0.35,2.46-1.06
			c1.35-1.35,1.35-3.58,0-4.99L68.88,65.28z M8.53,38.89c0-17.54,14.25-31.85,31.85-31.85c17.54,0,31.85,14.25,31.85,31.85
			S57.97,70.73,40.37,70.73S8.53,56.42,8.53,38.89z"/>
	</g>
</g>
</svg>
