{
    "key": "group_56c275a0f1ed7",
    "title": "Config",
    "fields": [],
    "location": [
        [
            {
                "param": "options_page",
                "operator": "==",
                "value": "config"
            }
        ]
    ],
    "menu_order": 0,
    "position": "normal",
    "style": "default",
    "label_placement": "top",
    "instruction_placement": "label",
    "hide_on_screen": "",
    "active": 1,
    "description": "",
    "modified": 1467785433
}